…
But using transparency can be challenging for very large datasets. Another solution is to use bin. Previously you used [`geom_histogram()`](https://ggplot2.tidyverse.org/reference/geom_histogram.html) and [`geom_freqpoly()`](https://ggplot2.tidyverse.org/reference/geom_histogram.html) to bin in one dimension. Now you'll learn how to use [`geom_bin2d()`](https://ggplot2.tidyverse.org/reference/geom_bin_2d.html) and [`geom_hex()`](https://ggplot2.tidyverse.org/reference/geom_hex.html) to bin in two dimensions.

geom_bin2d() and [`geom_hex()`](https://ggplot2.tidyverse.org/reference/geom_hex.html) divide the coordinate plane into 2d bins and then use a fill color to display how many points fall into each bin. [`geom_bin2d()`](https://ggplot2.tidyverse.org/reference/geom_bin_2d.html) creates rectangular bins. [`geom_hex()`](https://ggplot2.tidyverse.org/reference/geom_hex.html) creates hexagonal bins. You will need to install the hexbin package to use [`geom_hex()`](https://ggplot2.tidyverse.org/reference/geom_hex.html).

Heatmaply package and seriation package:

If the categorical variables are unordered, you might want to use the seriation package to simultaneously reorder the rows and columns in order to more clearly reveal interesting patterns. For larger plots, you might want to try the heatmaply package, which creates interactive plots.

Another approach for exploring the relationship between these variables is computing the counts with dplyr:

```{r}
diamonds |> 
  count(color, cut)
#> # A tibble: 35 × 3
#>   color cut           n
#>   <ord> <ord>     <int>
#> 1 D     Fair        163
#> 2 D     Good        662
#> 3 D     Very Good  1513
#> 4 D     Premium    1603
#> 5 D     Ideal      2834
#> 6 E     Fair        224
#> # … with 29 more rows
```
…
