Exploratory data analysis
…
count(diamonds,color,cut)
#> # A tibble: 35 × 3
#>   color cut           n
#>   <ord> <ord>     <int>
#> 1 D     Fair        163
#> 2 D     Good        662
#> 3 D     Very Good  1513
#> 4 D     Premium    1603
#> 5 D     Ideal      2834
#> 6 E     Fair        224
#> # ℹ 29 more rows
…
nycflights13::flights |> 
  summarise(dest,month,year) |> 
  group_by(dest,month)
#> Warning: Returning more (or less) than 1 row per `summarise()` group was deprecated
#> in dplyr 1.1.0.
#> ℹ Please use `reframe()` instead.
#> ℹ When switching from `summarise()` to `reframe()`, remember that
#>   `reframe()` always returns an ungrouped data frame and adjust accordingly.
#> # A tibble: 336,776 × 3
#> # Groups:   dest, month [1,113]
#>   dest  month  year
#>   <chr> <int> <int>
#> 1 IAH       1  2013
#> 2 IAH       1  2013
#> 3 MIA       1  2013
#> 4 BQN       1  2013
#> 5 ATL       1  2013
#> 6 ORD       1  2013
#> # ℹ 336,770 more rows
…
If you want to control the width you use cut_width, if you want to choose the number of bins use cut_number.

ggplot(smaller, aes(x = carat, y = price)) + 
  geom_boxplot(aes(group = cut_number(carat, 20)))

smaller |> 
  mutate(carat_group = cut_number(carat,20)) |>
  count(carat_group)
#> # A tibble: 20 × 2
#>   carat_group     n
#>   <fct>       <int>
#> 1 [0.2,0.3]    4203
#> 2 (0.3,0.31]   2249
#> 3 (0.31,0.32]  1840
#> 4 (0.32,0.35]  2766
#> 5 (0.35,0.4]   3333
#> 6 (0.4,0.42]   2088
#> # ℹ 14 more rows
…
ggplot(smaller, aes(x = carat, y = price)) + 
  geom_boxplot(aes(group = cut_width(carat, .1)))

smaller |>
  mutate(carat_group = cut_width(carat,.1)) |> 
  count(carat_group)
#> # A tibble: 27 × 2
#>   carat_group     n
#>   <fct>       <int>
#> 1 [0.15,0.25]   785
#> 2 (0.25,0.35] 10273
#> 3 (0.35,0.45]  6231
#> 4 (0.45,0.55]  5417
#> 5 (0.55,0.65]  2328
#> 6 (0.65,0.75]  5249
#> # ℹ 21 more rows
…
