R for Data Science (2e) - Solutions to Exercises - 8 Data import
…
The non-syntactic names can be read in as follows.

annoying <- tibble(
  `1` = 1:10,
  `2` = `1` * 2 + rnorm(length(`1`))
)

a. Extracting the variable called 1:

annoying |>
  select(`1`)
#> # A tibble: 10 × 1
#>     `1`
#>   <int>
#> 1     1
#> 2     2
#> 3     3
#> 4     4
#> 5     5
#> 6     6
#> # ℹ 4 more rows
…
c. Creating a new column called 3, which is 2 divided by 1:

annoying |>
  mutate(`3` = `2` / `1`)
#> # A tibble: 10 × 3
#>     `1`    `2`   `3`
#>   <int>  <dbl> <dbl>
#> 1     1  0.600 0.600
#> 2     2  4.26  2.13 
#> 3     3  3.56  1.19 
#> 4     4  7.99  2.00 
#> 5     5 10.6   2.12 
#> 6     6 13.1   2.19 
#> # ℹ 4 more rows

d. Renaming the columns to one, two, and three:

annoying |>
  mutate(`3` = `2` / `1`) |>
  rename(
    "one" = `1`,
    "two" = `2`,
    "three" = `3`
  )
#> # A tibble: 10 × 3
#>     one    two three
#>   <int>  <dbl> <dbl>
#> 1     1  0.600 0.600
#> 2     2  4.26  2.13 
#> 3     3  3.56  1.19 
#> 4     4  7.99  2.00 
#> 5     5 10.6   2.12 
#> 6     6 13.1   2.19 
#> # ℹ 4 more rows
…
